"Ingredients Rolled Oats, Dates, Raw Honey, Orange, Mango, Watermelon"
:
"Seeds,Apricot Kernels, Pistachios, Rice Bran Oil, Cardamom, Rose Petals, Roclk"
Salt.
NUTRITION FACTS
"""CONTAINS OATS, APRICOT KERNELS,"
Servings per pack:,10
"AND PISTACHIOS"""
Serving size,40g
WITH NO ADDED SUGAR
CONTAINS NATURALLY OCCURRING SUGARS
Energy,186.8kcal
FOOD PRODUCT: READY TO EAT CEREAL
Protein,4.4
g
Allergy Information This product is
Fat,7.7g
produced in a facility that processes
"dairy, soy, sesame seeds, gluten and"
Carbohydrates,24.8
g peanuts. It may contain traces and shell
(of which Sugars),9.9pieces
"of nuts, dairy, soy, sesame,gluten and"
