"Nutritional Facts "" Serving Size:",3
SCOOPS,(99g)
Nutrient Per serving per serving % RDA Vitamins % RDA Minerals % RDA
with,500ml
serving serving
500ml,Skimmed
water
Energy,402kcal,547kcal
Vitamin A,600IU,30%
Iron
Energy from fat,59kcal,63kcal
k* Vitamin C,12mg,30%
Phosphorus,190mg,31%
Total Fat,21%
Vitamin D,60IU
Saturated Fat k* Vitamin E,3.31U,30%
! lodine,45mcg,30%
Cholesterol kx Vitamin K,16mcg,30%
Magnesium
lotal Carbohydrate k*
kx Vitamin,B1,0.36mg,25%
Zinc,30%
Protein,40%
Vitamin,B2,0.42mg,26%
Selenium,30%
Creatine Monohydrate,3000mg,3000mg,tx Vitamin B3,0.48mg,2.6%
L-Glutamine,2000mg,2340g,k* Vitamin B5,1.5mg,30%
Manganese,30%
BCAA,2950mg,5096mg,kx Vitamin B6,0.6mg,30%
| Copper,270mcg,30%
Choline Biotin,9mcg,30%
Sodium,340mg
Folic Acid,60mcg,30%
| Chromium,1.5mcg,30%
Calcium,200mg,800mg,3'5%
Vitamin B12,0.3mcg,30%
Molybdenum,13.5mcg,30%
One cup of skimmed milk,(500ml)
provides an additional,"145kcal,",12.5g
"protein,",23g
"carbohydrate,",0.5g
"fat,",600mg
calcium
( Values as per NIN ) I #Approximate values l Recommended Daily Allowances as per ICMR CODEX
","
**Percentage RDA are not established
3,servings of,99g,ProQuest Mass Gainer in a day
