Nutrition Values
Per,30g
Calories,165kcal
----Calories from Fat,98kcal
% Daily Value *
Total Carbohydrates,12.76g,3%
Fiber,214g,10%
Sugars,5.1g
Proteins,3.6q
Total Fat,11g,8%
----Saturated Fat,2.1g,5%
Trans Fat og
Cholesterol,0mg,0%
Sodium,"1,1mg",0%
Calcium,3.2%
Vitamin C,4.4%
Vitamin A,0.3%
iron,4.2%
