Nutrition Facts/ Valeur nutritive
Serving Size,1
oz,(28g)/
par portion de,1
oz,(28g)
Serving Per Container,14
Amount per serving
Calories,160
Calories from fat,102
% Daily Value . % valeur quotidien .
Total Fat/ Gras Total,11g
17%
Saturated Fat/Gras Saturé Fat,2.3g
11%
Trans Fat/ Acide Gras Trans,0g
Cholesterol / Cholestérol,0mg
0%
Sodium/Sodium,292mg
12%
Potassium/ Potassium,199mg
Total Carbohydrate/ Glucides,10g
3%
Dietary Fiber/Fibres Alimentaires,1.6g
6%
Sugars/Sucres,0g
Protein/ Protéine,4g
Vitamin A / Vitamine A,0%
· Vitamin C / Vitamine C,0%
Calcium / Calcium,1%
Iron / de Fer,2%
Percent Daily values are based on a,2000-calorie
diet
Your daily values may be higher or lower depending on
your calorie needs.
Calories2,"2,000","2,500"
Total Fat Less than,65g,80g
Sat. Fat Less than,20g,25g
Cholesterol Less than,300mg,300mg
Sodium Less than,"2,400mg","2,400"
mo
Total Carbohydrate,300g,375g
----Dietary Fiber,25g,30g
Nutrition Information
Typical Values Per,100g
Per Serving,(27
g)
Energy,593,kcal/2483KJ,160,kcal/670k
Protein,14.3g
Total Carbohydrates,39g,10,9
Dietary Fiber,1.6g
Sugars
Total Fat,42g,11g
----Saturated Fat,8.5g,2.3,9
----Monounsaturated Fat,16.7g,4.5g
----Polyunsaturated Fat,6.8,9,4.2,9
----Trans Fat
Cholesterol,0mg,0mg
Sodium,1080mg,292mg
