Kellogg's Chocos Moons & Stars
"Nutrition Information """
° Typical value for,30g,0%
orekim with milk
Energy,117,kca152kcal
Energy from Fat,8kcal,9kcal
Total Fat,0.9,1.0
Saturated Fatty Acids,04g,0.5g
Monounsaturated Fatty,Acids03g,0.3g
Polyunsaturated Fatty Acids,0.1g
Trans Fatty Acids
Cholesterol
Total Carbohydrates,25.2g,30.7g
of which Sugar (Sucrose),10.4g,10.4g
of which Dietary Fibre
Protein,2.6,5.6
Sodium,0.12,0.17
1%,RDA )
Vitamin A,30.0,35.4
Vitamin
26
Vitamin B6,30%
Folate,18%
ron,19%
38%
Zinc,8%
Total trans fat content not more than,0
percent by weight
Total saturated fat content not more than,1.3
Approximate values
