Nutrition Facts
Calories,205
Serving Size:,1
Cookie,(40g),1.4oz.
----Calories from Fat,115
Servings per Box:,12
*Percent Daily Values are based on a
"2,000",calorie diet. Your daily values
may be higher or lower depending on
"Amount Per Serving % DV * Amount Per Serving % DV "" your caloric needs :"
Total Fat,13g,20%
Potassium,250mg,7%
Calories:,"2,000","2,500"
----Saturated Fat,6g,30%
Total Carbohydrate,10g,3%
Total Fat Less than,65g,80g
Sat Fat Less than,209,5
Trans Fat,0g
Dietary Fiber,1g,490
Cholesterol Less than,300mg,300mg
Sodium Less than,2400mg,2.40mg
Cholesterol,10mg,3%
Sugars,5g
Potassium Less than,"3,500mg","3,500mg"
Sodium,100mg,4%
Protein,13g,26%
Total Carbohydrate,300g,375g
Dietary Fiber,25g,30g
Vitamin A,0%
. Vitamin C,0%
", Calcium",10%,90
. Iron,6%
Protein,50g,85g
"INGREDIENTS : Proto Whey "" protein blend ( Micro Peptides "" from High - DH hydrolyzed whey protein [",40%
"di and tripeptides], whey protein isolate, milk protein isolate), palm oil, enriched flour (wheat flour, malted"
"barley flour, niacin, reduced iron, thiamine mononitrate, riboflavin, folic acid), sugar, palm kernel oil, cocoa"
"processed with alkali, fructose, natural flavors, soy lecithin, salt, baking soda, ammonium bicarbonate,"
stevia leaf extract.
"ALLERGY INFORMATION: contains milk, wheat, soy (from lecithin). This product is manufactured on"
equipment that also processes peanuts.
owercrunch
protein energy bar
original
our S Y Smart
6,44225,72210,3
