Facts
Nutrition
Size,28g
Serving
Amount Per Serving
Calories,120
Calories from Fat,50
% Daily Value *
Total Fat,6g,9%
----Saturated Fat,2g,10%
----Trans Fat,0g
Cholesterol Omg,0%
Sodium,35mg,100
Potassium,135mg,4°%
Total Carbohydrate,17g,6%
----Dietary Fiber,1g,4%
----Sugars,13g
Protein,2g
Vitamin A,0%
Vitamin C,400
Calcium,290
Iron,2%
% Daily Value are based on a,"2,000"
calorie diet. Your daily values may
be higher or lower depending on your calorie needs.
