Nutrition Facts U.S.
Serving size,1
Biscuit,(9g)
Average servings pack,16
per
Amount serving:
per
Calories,47.
Calories from Fat,23
% Daily Value *
Total Fat,2.6g,0%
----Saturated Fat,1.7g,8.5%
----Trans Fat,0g
Cholesterol,8m,2.7%
Sodium,23mg,1%
Total Carbohydrate,5.7g,1.9%
----Dietary Fiber,0.2g,0.8%
----Sugars,2.3g
Protein,0.4g,0.8%
*Percent Daily Value (DV) calculated,2000
on a
"calorie diet. Not a significant source of Vitamin A,"
"Vitamin C, Calcium and Irorn."
NUTRITIONAL INFORMATION UK & EU
TYPICAL VALUES Per,100
Per biscuit
ENERGY,2180kJ,196kJ
521kcal,47kcal
PROTEIN,4.6,0.4
CARBOHYDRATE,63.5g,5.7g
of which sugars,25.3,2.3
FAT,28.5g,2.6g
of which saturates,18.9g,1.7g
of which mono-unsaturates,7.1g,0.6g
of which polyunsaturates
DIETARY FIBRE,1.9,0.2
SODIUM,0.3,0.03
